…
```r
head(ship2_sp) %>% View
```

## Manipulating Data with dplyr

You can use **some** (all?) of the dplyr verbs and also SQL commands directly on spark tables. That's basically the whole point.


```r
ship2_sp %>% count(ORIG_STATE)
```

```
## Source:   query [52 x 2]
## Database: spark connection master=local[4] app=sparklyr local=TRUE
## 
##    ORIG_STATE      n
##         <int>  <dbl>
## 1          25  97933
## 2          12 172342
## 3          13 130663
## 4          37 148681
## 5          18 141060
## 6          38  23188
## 7          56  15868
## 8          46  31072
## 9          50  22781
## 10         42 205959
## # ... with 42 more rows
```
…
```
##    user  system elapsed 
##   5.210   1.196 135.121
```

The resulting object is a data frame with a column identifying our origin states and a second column containing a pointer to the actual models

```r
stateModelsSp
```

```
## # A tibble: 52 × 2
##    ORIG_STATE                              mod
##         <int>                           <list>
## 1          25 <S3: ml_model_linear_regression>
## 2          12 <S3: ml_model_linear_regression>
## 3          13 <S3: ml_model_linear_regression>
## 4          37 <S3: ml_model_linear_regression>
## 5          18 <S3: ml_model_linear_regression>
## 6          38 <S3: ml_model_linear_regression>
## 7          56 <S3: ml_model_linear_regression>
## 8          46 <S3: ml_model_linear_regression>
## 9          50 <S3: ml_model_linear_regression>
## 10         42 <S3: ml_model_linear_regression>
## # ... with 42 more rows
```
…
